{
    "logros": [

        {
            "id" : "logro-i",
            "titulo": "100",
            "medida": "m",
            "intervalo" : {
                "desde" : 0.100,
                "hasta" : 0.399
            },
            "texto" : "¡Primeros 100 metros! El hombre más rápido se lo hace en 10\", a ver tú en cuánto",
            "bagdet" : ""
        },
        {
            "id" : "logro-ii",
            "titulo": "400",
            "medida": "m",
            "intervalo" : {
                "desde" : 0.400,
                "hasta" : 0.999
            },
            "texto" : "¡400 metros! ¡Como subir a un rascacielos! Prueba empezando a subir a casa por las escaleras",
            "bagdet" : ""
        },
        {
            "id" : "logro-iii",
            "titulo": "1",
            "medida": "km",
            "intervalo" : {
                "desde" : 1,
                "hasta" : 1.999
            },
            "texto" : "¡1 kilómetro! Ojo, que son 3 vueltas a un campo de fútbol. Anímate y date hoy alguna por el barrio",
            "bagdet" : ""
        },
        {
            "id" : "logro-iv",
            "titulo": "2",
            "medida": "km",
            "intervalo" : {
                "desde" : 2,
                "hasta" : 3.999
            },
            "texto" : "¡2 kilómetros! ¡Eso es el puente de Brooklyn! Sal a ver cómo son los de tu ciudad",
            "bagdet" : ""
        },

        {
            "id": "logro-v",
            "titulo": "4",
            "medida": "km",
            "intervalo": {
                "desde": 4,
                "hasta": 9.999
            },
            "texto": "¡4 km y subiendo! ¡Ni el Teide mide tanto! ¿Hace cuánto no paseas por el monte?",
            "bagdet": ""
        },

        {
            "id": "logro-vi",
            "titulo": "10",
            "medida": "km",
            "intervalo": {
                "desde": 10,
                "hasta": 19.999
            },
            "texto": "¡10 km! Has scrolleado la calle Alcalá entera, ¿eres capaz de hacerla también andando?",
            "bagdet": ""
        },

        {
            "id": "logro-vii",
            "titulo": "20",
            "medida": "km",
            "intervalo": {
                "desde": 20,
                "hasta": 41.999
            },
            "texto": "¡20 km! El doble de lo que corre un triatleta olímpico. ¡Prueba a hacerlo tú con la bici!",
            "bagdet": ""
        },

        {
            "id": "logro-viii",
            "titulo": "42",
            "medida": "km",
            "intervalo": {
                "desde": 42,
                "hasta": 999999
            },
            "texto": "¡Llegaste a 42 kilómetros! ¡Toda una maratón scroller! Anímate y haz la próxima de tu ciudad",
            "bagdet": ""
        }

    ]
}
